<svg width="24" height="24" viewBox="0 0 24 24" fill="none" xmlns="http://www.w3.org/2000/svg">
<path d="M16.8656 17.7937C17.4469 17.2125 18.0281 16.6312 18.6094 16.05C19.5281 15.1312 20.4469 14.2125 21.3656 13.2937C21.5766 13.0828 21.7875 12.8719 21.9984 12.6609C22.357 12.3023 22.357 11.693 21.9984 11.3344C21.4172 10.7531 20.8359 10.1719 20.2547 9.59063C19.3359 8.67656 18.4172 7.75781 17.4984 6.83906C17.2875 6.62813 17.0766 6.41719 16.8656 6.20625C16.5188 5.85938 15.8813 5.83359 15.5391 6.20625C15.1945 6.58125 15.1688 7.1625 15.5391 7.53281C16.1203 8.11406 16.7016 8.69531 17.2828 9.27656C18.2016 10.1953 19.1203 11.1141 20.0391 12.0328C20.25 12.2438 20.4609 12.4547 20.6719 12.6656C20.6719 12.2227 20.6719 11.782 20.6719 11.3391C20.0906 11.9203 19.5094 12.5016 18.9281 13.0828C18.0094 14.0016 17.0906 14.9203 16.1719 15.8391C15.961 16.05 15.75 16.2609 15.5391 16.4719C15.1922 16.8187 15.1664 17.4562 15.5391 17.7984C15.9141 18.1383 16.4953 18.1641 16.8656 17.7937Z" fill="#B7730D"/>
<path d="M21.3352 11.0625C20.8711 11.0625 20.4071 11.0625 19.943 11.0625C18.8274 11.0625 17.7141 11.0625 16.5985 11.0625C15.2508 11.0625 13.9008 11.0625 12.5532 11.0625C11.3883 11.0625 10.2235 11.0625 9.05863 11.0625C8.49378 11.0625 7.93128 11.0555 7.36644 11.0625C7.35941 11.0625 7.35003 11.0625 7.343 11.0625C6.85316 11.0625 6.38207 11.4938 6.4055 12C6.42894 12.5086 6.818 12.9375 7.343 12.9375C7.80707 12.9375 8.27113 12.9375 8.73519 12.9375C9.85082 12.9375 10.9641 12.9375 12.0797 12.9375C13.4274 12.9375 14.7774 12.9375 16.125 12.9375C17.2899 12.9375 18.4547 12.9375 19.6196 12.9375C20.1844 12.9375 20.7469 12.9445 21.3118 12.9375C21.3188 12.9375 21.3282 12.9375 21.3352 12.9375C21.825 12.9375 22.2961 12.5063 22.2727 12C22.2516 11.4914 21.8625 11.0625 21.3352 11.0625Z" fill="#B7730D"/>
<path d="M19.8784 19.3771C19.8784 19.9865 19.8784 20.5982 19.8784 21.2076C19.8784 21.3271 19.8831 21.4466 19.8667 21.5661C19.8784 21.4841 19.8901 21.3997 19.8995 21.3177C19.8854 21.4115 19.8596 21.5029 19.8245 21.5919C19.8549 21.5169 19.8878 21.4419 19.9182 21.3669C19.8784 21.463 19.8268 21.5521 19.7659 21.6341C19.8151 21.5708 19.8643 21.5076 19.9135 21.4443C19.8503 21.5263 19.7776 21.5966 19.6979 21.6599C19.7612 21.6107 19.8245 21.5615 19.8878 21.5122C19.8034 21.5755 19.7167 21.6247 19.6206 21.6646C19.6956 21.6341 19.7706 21.6013 19.8456 21.5708C19.7565 21.606 19.6651 21.6294 19.5714 21.6458C19.6534 21.6341 19.7378 21.6224 19.8198 21.613C19.6487 21.6341 19.4729 21.6247 19.2995 21.6247C18.9503 21.6247 18.601 21.6247 18.2518 21.6247C17.0846 21.6247 15.9198 21.6247 14.7526 21.6247C13.3346 21.6247 11.919 21.6247 10.501 21.6247C9.27995 21.6247 8.0612 21.6247 6.8401 21.6247C6.26589 21.6247 5.69167 21.6271 5.11745 21.6247C5.05651 21.6247 4.99792 21.6201 4.93932 21.613C5.02135 21.6247 5.10573 21.6365 5.18776 21.6458C5.09401 21.6318 5.0026 21.606 4.91354 21.5708C4.98854 21.6013 5.06354 21.6341 5.13854 21.6646C5.04245 21.6247 4.95339 21.5732 4.87135 21.5122C4.93464 21.5615 4.99792 21.6107 5.0612 21.6599C4.97917 21.5966 4.90885 21.524 4.84557 21.4443C4.89479 21.5076 4.94401 21.5708 4.99323 21.6341C4.92995 21.5497 4.88073 21.463 4.84089 21.3669C4.87135 21.4419 4.90417 21.5169 4.93464 21.5919C4.89948 21.5029 4.87604 21.4115 4.85964 21.3177C4.87135 21.3997 4.88307 21.4841 4.89245 21.5661C4.86667 21.3622 4.88073 21.1513 4.88073 20.9451C4.88073 20.5044 4.88073 20.0638 4.88073 19.6232C4.88073 18.9669 4.88073 18.3107 4.88073 17.6544C4.88073 16.8482 4.88073 16.0396 4.88073 15.2333C4.88073 14.3474 4.88073 13.4615 4.88073 12.5779C4.88073 11.6849 4.88073 10.7896 4.88073 9.89662C4.88073 9.06693 4.88073 8.23958 4.88073 7.4099C4.88073 6.70912 4.88073 6.00599 4.88073 5.30521C4.88073 4.80599 4.88073 4.30443 4.88073 3.80521C4.88073 3.57552 4.88073 3.34818 4.88073 3.11849C4.88073 3.05755 4.88542 2.99661 4.89245 2.93568C4.88073 3.01771 4.86901 3.10208 4.85964 3.18411C4.8737 3.09036 4.89948 2.99896 4.93464 2.9099C4.90417 2.9849 4.87135 3.0599 4.84089 3.1349C4.88073 3.0388 4.93229 2.94974 4.99323 2.86771C4.94401 2.93099 4.89479 2.99427 4.84557 3.05755C4.90885 2.97552 4.98151 2.90521 5.0612 2.84193C4.99792 2.89115 4.93464 2.94036 4.87135 2.98958C4.95573 2.9263 5.04245 2.87708 5.13854 2.83724C5.06354 2.86771 4.98854 2.90052 4.91354 2.93099C5.0026 2.89583 5.09401 2.8724 5.18776 2.85599C5.10573 2.86771 5.02135 2.87943 4.93932 2.8888C5.11042 2.86771 5.2862 2.87708 5.45964 2.87708C5.80885 2.87708 6.15807 2.87708 6.50729 2.87708C7.67448 2.87708 8.83932 2.87708 10.0065 2.87708C11.4245 2.87708 12.8401 2.87708 14.2581 2.87708C15.4792 2.87708 16.6979 2.87708 17.919 2.87708C18.4932 2.87708 19.0674 2.87474 19.6417 2.87708C19.7026 2.87708 19.7612 2.88177 19.8198 2.8888C19.7378 2.87708 19.6534 2.86536 19.5714 2.85599C19.6651 2.87005 19.7565 2.89583 19.8456 2.93099C19.7706 2.90052 19.6956 2.86771 19.6206 2.83724C19.7167 2.87708 19.8057 2.92865 19.8878 2.98958C19.8245 2.94036 19.7612 2.89115 19.6979 2.84193C19.7799 2.90521 19.8503 2.97786 19.9135 3.05755C19.8643 2.99427 19.8151 2.93099 19.7659 2.86771C19.8292 2.95208 19.8784 3.0388 19.9182 3.1349C19.8878 3.0599 19.8549 2.9849 19.8245 2.9099C19.8596 2.99896 19.8831 3.09036 19.8995 3.18411C19.8878 3.10208 19.876 3.01771 19.8667 2.93568C19.8995 3.19115 19.8784 3.45599 19.8784 3.7138C19.8784 4.09349 19.8784 4.47318 19.8784 4.85286C19.8784 4.94427 19.8784 5.03568 19.8784 5.12708C19.8784 5.61693 20.3096 6.08802 20.8159 6.06458C21.3245 6.04115 21.7534 5.65208 21.7534 5.12708C21.7534 4.62318 21.7534 4.12161 21.7534 3.61771C21.7534 3.44427 21.7557 3.27083 21.7534 3.09974C21.744 2.35443 21.3432 1.62552 20.6776 1.26927C20.2862 1.05833 19.8737 1.00208 19.4424 1.00208C19.1635 1.00208 18.8846 1.00208 18.6057 1.00208C17.5862 1.00208 16.5667 1.00208 15.5471 1.00208C14.2253 1.00208 12.9034 1.00208 11.5815 1.00208C10.337 1.00208 9.09245 1.00208 7.84557 1.00208C7.04401 1.00208 6.24245 1.00208 5.43854 1.00208C5.30964 1.00208 5.17839 0.997396 5.04714 1.00208C4.31589 1.03255 3.58932 1.43568 3.25182 2.10365C3.0901 2.42708 3.00104 2.7599 3.00104 3.12083C2.9987 3.57552 3.00104 4.02786 3.00104 4.48255C3.00104 5.46927 3.00104 6.45365 3.00104 7.44037C3.00104 8.71771 3.00104 9.99271 3.00104 11.2701C3.00104 12.6107 3.00104 13.9513 3.00104 15.2919C3.00104 16.4451 3.00104 17.5982 3.00104 18.7513C3.00104 19.4919 3.00104 20.2302 3.00104 20.9708C3.00104 21.1091 3.00104 21.2474 3.00104 21.388C3.00339 21.7724 3.10182 22.1685 3.30573 22.4943C3.69479 23.1154 4.3651 23.4927 5.0987 23.5021C5.54635 23.5068 5.99635 23.5021 6.44635 23.5021C7.52917 23.5021 8.61198 23.5021 9.69479 23.5021C11.0237 23.5021 12.3549 23.5021 13.6839 23.5021C14.8956 23.5021 16.1073 23.5021 17.319 23.5021C18.0339 23.5021 18.7487 23.5021 19.4635 23.5021C19.9253 23.5021 20.3917 23.4411 20.7831 23.1716C21.3784 22.7638 21.744 22.131 21.7534 21.4021C21.7557 21.2099 21.7534 21.0154 21.7534 20.8232C21.7534 20.3404 21.7534 19.8599 21.7534 19.3771C21.7534 18.8872 21.3221 18.4161 20.8159 18.4396C20.3073 18.463 19.8784 18.8521 19.8784 19.3771Z" fill="#B7730D"/>
</svg>
