<svg width="1440" height="113" viewBox="0 0 1440 113" fill="none" xmlns="http://www.w3.org/2000/svg">
<path d="M480.705 149.145C590.792 149.145 687.792 61.518 795.239 60.325C913.031 59.0198 989.059 98.3927 1094.04 98.3927C1210.88 98.3927 1384.07 160.791 1439.2 46.4507L1440 238H-11V1.42215C232.897 -16.972 336.847 149.145 480.705 149.145Z" fill="#FFCE84" fill-opacity="0.5"/>
<path d="M0 127.178C45.9402 88.9905 146.467 80.6775 223.459 93.5495C331.942 111.687 516.257 250.029 647.209 155.176C764.223 70.4194 854.693 104.245 897.407 93.0487C953.139 78.4437 960.403 56.2605 1036.06 35.2193C1114.72 13.3444 1236.24 44.8751 1294.53 51.6862C1353.01 58.5193 1413.02 47.4573 1440 12.0297V321H0V127.178Z" fill="#FFC877" fill-opacity="0.5"/>
<path d="M1440 127.178C1394.06 88.9905 1293.53 80.6775 1216.54 93.5495C1108.06 111.687 923.743 250.029 792.791 155.176C675.777 70.4194 585.307 104.245 542.593 93.0487C486.861 78.4437 481.597 50.2605 405.937 29.2193C327.282 7.34439 203.761 44.8751 145.474 51.6862C86.9928 58.5193 26.9838 47.4573 0.00012207 12.0297V321H1440V127.178Z" fill="#FFC877" fill-opacity="0.5"/>
</svg>
